Machine Learning I: Group Assignment 2: Supervised
…
summary_factor('Floor')

## # A tibble: 27 x 7
##    Floor  Mean    SD     N p0.25 p0.50 p0.75
##    <dbl> <dbl> <dbl> <int> <dbl> <dbl> <dbl>
##  1  -1   1300    NA      1 1300  1300  1300 
##  2  -0.5  766.  196.     4  680   820   906.
##  3   0   2643. 2700.   164  845  1250  3700 
##  4   0.5 1701. 1386.    16  819.  974. 2375 
##  5   1   1645. 1377.   325  900  1250  1900 
##  6   2   1970. 1428.   335  975  1400  2532.
##  7   3   1682. 1189.   355  900  1300  2160 
##  8   4   1830. 1478.   235 1000  1350  2262.
##  9   5   1986. 1058.   174 1250  1650  2600 
## 10   6   2390. 1643.   139 1250  1900  3150 
## # ... with 17 more rows
…
Good opportunities

# Find good opportunities in the market looking for flats that may be under their theoretical estimated price

data_6_temp <- data4
data_6_temp$Prediction <- predict(model_step, data_6_temp)
data_6_temp$Ratio <- data_6_temp$Prediction/data_6_temp$Rent-1

data_6_temp %>% 
  arrange(desc(Ratio))

## # A tibble: 1,977 x 18
##       Id District Address Number Area   Rent Bedrooms Sq.Mt Floor Outer Elevator
##    <dbl> <chr>    <chr>   <chr>  <chr> <dbl>    <dbl> <dbl> <dbl> <fct> <fct>   
##  1  2188 Viclva~ Estudi~ 5      San ~   900        0   200     4 Yes   Yes     
##  2  1083 Arganzu~ Estudi~ 120    Tole~   750        0    50     1 No    Yes     
##  3  2169 Viclva~ Piso e~ <NA>   Los ~   700        3    98     7 Yes   Yes     
##  4  2171 Viclva~ Piso e~ <NA>   San ~   650        2    70     4 No    Yes     
##  5  2176 Viclva~ Piso e~ <NA>   San ~   640        2    70     2 Yes   Yes     
##  6  2187 Viclva~ Piso e~ 35     San ~   750        2    92     0 Yes   Yes     
##  7   375 Latina   tico ~ 8      Luce~  1000        1   150     3 Yes   Yes     
##  8  2181 Viclva~ Piso e~ <NA>   San ~   450        1    45     1 Yes   No      
##  9  2173 Viclva~ Piso e~ 58     San ~   600        2    65     3 Yes   No      
## 10  1438 Caraban~ Piso e~ <NA>   Vist~   590        3    85     4 Yes   No      
## # ... with 1,967 more rows, and 7 more variables: Type <fct>,
## #   AddressComplete <chr>, AreaComplete <chr>, Longitude <dbl>, Latitude <dbl>,
## #   Prediction <dbl>, Ratio <dbl>
…
